Intro til R og Tidyverse – Kursusmateriale til Virksomhedsstrategi i et netværksperspektiv
…
Vi giver read_csv() stien til filen “data/fligths.csv” (vi kan undlade alt foran data/ fordi vi er i et Rprojekt, som har et working directory. Dvs R ved hvor på computeren, vi befinder os). Hvis vi bare ‘kører’ koden får vi læst data ind, men ikke gemt i hukommelsen.

read_csv("data/flights.csv")

New names:
Rows: 336776 Columns: 20
── Column specification
──────────────────────────────────────────────────────── Delimiter: "," chr
(4): carrier, tailnum, origin, dest dbl (15): ...1, year, month, day, dep_time,
sched_dep_time, dep_delay, arr_... dttm (1): time_hour
ℹ Use `spec()` to retrieve the full column specification for this data. ℹ
Specify the column types or set `show_col_types = FALSE` to quiet this message.
• `` -> `...1`

# A tibble: 336,776 × 20
    ...1  year month   day dep_time sched_dep_time dep_delay arr_time
   <dbl> <dbl> <dbl> <dbl>    <dbl>          <dbl>     <dbl>    <dbl>
 1     1  2013     1     1      517            515         2      830
 2     2  2013     1     1      533            529         4      850
 3     3  2013     1     1      542            540         2      923
 4     4  2013     1     1      544            545        -1     1004
 5     5  2013     1     1      554            600        -6      812
 6     6  2013     1     1      554            558        -4      740
 7     7  2013     1     1      555            600        -5      913
 8     8  2013     1     1      557            600        -3      709
 9     9  2013     1     1      557            600        -3      838
10    10  2013     1     1      558            600        -2      753
# ℹ 336,766 more rows
# ℹ 12 more variables: sched_arr_time <dbl>, arr_delay <dbl>, carrier <chr>,
#   flight <dbl>, tailnum <chr>, origin <chr>, dest <chr>, air_time <dbl>,
#   distance <dbl>, hour <dbl>, minute <dbl>, time_hour <dttm>
…
Vi kan inddele de mest almindelige verber i tre grupper: nogle der gør noget i forhold til rækker, nogle der gør noget i forhold til kolonner og nogle der gør noget i forhold til grupper

Række orienterede verber/funktioner

Lad os starte med en af de verber vi kommer til at bruge hele tiden, filter(). I forhold til måden at skrive kode på tager vi vores data.objekt flights og sender det videre %>% til verbet filter(), som filtrer data baseret på de betingelser vi giver det. flights indeholder en variable der hedder dep_delay (hvor meget var en afgang forsinket). Lad os sige vi kun vil se på de afgange der er forsinket med mere > end tre timer (180 min). Vi kunne også have brugt andre betingesler, fx. mindre end, <, eller lig med == (husk at vi altid bruger dobbelt =, når der er tale om logiske operationer), eller ikke lig med !=.

flights %>% filter(dep_delay > 180)

# A tibble: 3,893 × 20
    ...1  year month   day dep_time sched_dep_time dep_delay arr_time
   <dbl> <dbl> <dbl> <dbl>    <dbl>          <dbl>     <dbl>    <dbl>
 1   152  2013     1     1      848           1835       853     1001
 2   650  2013     1     1     1815           1325       290     2120
 3   674  2013     1     1     1842           1422       260     1958
 4   747  2013     1     1     2006           1630       216     2230
 5   802  2013     1     1     2115           1700       255     2330
 6   816  2013     1     1     2205           1720       285       46
 7   831  2013     1     1     2312           2000       192       21
 8   835  2013     1     1     2343           1724       379      314
 9  1243  2013     1     2     1244            900       224     1431
10  1279  2013     1     2     1332            904       268     1616
# ℹ 3,883 more rows
# ℹ 12 more variables: sched_arr_time <dbl>, arr_delay <dbl>, carrier <chr>,
#   flight <dbl>, tailnum <chr>, origin <chr>, dest <chr>, air_time <dbl>,
#   distance <dbl>, hour <dbl>, minute <dbl>, time_hour <dttm>
…
# A tibble: 6 × 6
  origin dest   year month   day dep_delay
  <chr>  <chr> <dbl> <dbl> <dbl>     <dbl>
1 EWR    IAH    2013     1     1         2
2 LGA    IAH    2013     1     1         4
3 JFK    MIA    2013     1     1         2
4 JFK    BQN    2013     1     1        -1
5 LGA    ATL    2013     1     1        -6
6 EWR    ORD    2013     1     1        -4

En anden nyttig kolonne-funktion er rename(). Måske vil vi gerne kalde vores kolonner noget andet. I det her tilfælde kunne det være vi gerne ville have det på dansk. rename() fungerer på den måde at man skriver det nye navn og fortæller funktionen at det skal være lig med = det gamle navn. Bemærk at vi her ikke assigner vores output til noget objekt, vi ser bare de første par rækker, head(). Dvs. flights_reduced objektet forbliver uforandret

flights_reduced %>% rename(fra = origin, til = dest, år = year, måned = month, dag = day, forsinkelse = dep_delay) 

# A tibble: 336,776 × 6
   fra   til      år måned   dag forsinkelse
   <chr> <chr> <dbl> <dbl> <dbl>       <dbl>
 1 EWR   IAH    2013     1     1           2
 2 LGA   IAH    2013     1     1           4
 3 JFK   MIA    2013     1     1           2
 4 JFK   BQN    2013     1     1          -1
 5 LGA   ATL    2013     1     1          -6
 6 EWR   ORD    2013     1     1          -4
 7 EWR   FLL    2013     1     1          -5
 8 LGA   IAD    2013     1     1          -3
 9 JFK   MCO    2013     1     1          -3
10 LGA   ORD    2013     1     1          -2
# ℹ 336,766 more rows
…
Man kan også gruppere data ud fra mere end en variabel. Vi kunne fx se på hvilke stærkninger, altså fra til, der er mest forsinkede. Her introduceres desuden en anden meget anvendlig funktion, nemlig arrange(), der sorterer data på en given variabel. Hvis vi bruger desc() omkring variable sorterer den faldende (dvs. fra størt til mindst, ellers sorterer den altid fra mindst til størst):

flights_reduced %>% 
  group_by(fra, til) %>% 
  summarise(gens_forsinkelse = mean(forsinkelse, na.rm = T),  fly = n(), halv_time = sum(forsinket_halv_time, na.rm = T), halv_time_pct = halv_time / fly) %>% 
  arrange(desc(gens_forsinkelse))

`summarise()` has grouped output by 'fra'. You can override using the `.groups`
argument.

# A tibble: 224 × 6
# Groups:   fra [3]
   fra   til   gens_forsinkelse   fly halv_time halv_time_pct
   <chr> <chr>            <dbl> <int>     <int>         <dbl>
 1 EWR   TYS               41.8   323       121         0.375
 2 EWR   CAE               36.3   104        33         0.317
 3 EWR   TUL               34.9   315       112         0.356
 4 LGA   SBN               31.3     6         3         0.5  
 5 EWR   OKC               30.6   346       112         0.324
 6 LGA   BHM               29.8   296        88         0.297
 7 LGA   CAE               29.5    12         4         0.333
 8 EWR   DSM               29.3   411       121         0.294
 9 EWR   JAC               28.7    23         6         0.261
10 EWR   ROC               27.9   513       147         0.287
# ℹ 214 more rows
…
