Analyse af strategiske netværksroller – Kursusmateriale til Virksomhedsstrategi i et netværksperspektiv
…
Omkodninger

Vi laver en ny variabel, executive, som er TRUE hvise role_type indeholder enten “BoD” eller “ExeB” eller “SenMan” eller “ExeC” ELLER hvis role indeholder forskellige ord, der indikerer executive level:

pharma_nordic <- pharma_nordic %>% mutate(executive = grepl("BoD|ExeB|SenMan|ExeC", role_type) | grepl("Director|directeur|Head of|general|Chief|executive|president|Chairman", role, ignore.case =T))

Vi har hentet to forskellige variable på Orbis for personernes geografiske oprindelse: person_country og person_contries. Den første er fødested, den anden er countr(y/ies) of nationality.

Lad os se hvad fødested indeholder:

pharma_nordic %>% count(person_country, sort = TRUE)

# A tibble: 38 × 2
   person_country               n
   <chr>                    <int>
 1 <NA>                      5781
 2 Denmark                    878
 3 Finland                    349
 4 Sweden                     349
 5 Switzerland                281
 6 Norway                     189
 7 Germany                    138
 8 United States of America   125
 9 Italy                      113
10 United Kingdom             102
# ℹ 28 more rows
…
Lad os lave en geografi-variabel person_gep, hvor vi bruger nationalitet når fødested er NA (der, hvor der er flere adskilt af “;”, lad da tage den første) og ellers bruger fødested (.default= person_country):

pharma_nordic <- pharma_nordic %>% 
  mutate(person_geo = case_when(is.na(person_country)~
                                  str_extract(person_countries, 
                                              "(^.*?(?=;))|(^.*?$)"),
                                .default = person_country))

Nu har vi færre NA’er:

pharma_nordic %>% count(person_geo, sort = TRUE)

# A tibble: 54 × 2
   person_geo                   n
   <chr>                    <int>
 1 <NA>                      2270
 2 Sweden                    1804
 3 Denmark                   1214
 4 Norway                    1007
 5 Finland                    719
 6 Switzerland                286
 7 United Kingdom             226
 8 Germany                    179
 9 United States of America   125
10 United States              116
# ℹ 44 more rows
…
