Introduktion til netværksanalyse i R – Kursusmateriale til Virksomhedsstrategi i et netværksperspektiv
…
Lad os bruge filter() til at lave et nyt dataobjekt, der kun indeholder de rækker, hvor sector er lig Corporations.

den_corp <- den %>% 
  filter(sector == "Corporations") 

den_corp %>% count(affiliation, sort = TRUE)

# A tibble: 1,454 × 2
   affiliation                                        n
   <chr>                                          <int>
 1 TRE-FOR (Repraesentantskab)                      119
 2 Kromann Reumert                                   55
 3 Bech-Bruun                                        54
 4 Gorrissen Federspiel                              40
 5 Plesner                                           40
 6 EnergiMidt                                        31
 7 Lett Law Firm                                     27
 8 Koebenhavns Lufthavns Vaekstkomité (Medlemmer)    24
 9 Syd Energi (SE)                                   24
10 TDC (note)                                        24
# ℹ 1,444 more rows
…
     org1 org2 org3
org1    2    1    1
org2    1    2    0
org3    1    0    2

Praktisk eksempel med den17

lad os bruge det dataobjekt vi allerede har defineret, den_corp, som indeholder alle rækker fra den17 som har sector == "Corporations".

vi kan lige se, hvordan kolonnerne name og affiliation ser ud:

den_corp %>% select(name, affiliation) 

# A tibble: 9,524 × 2
   name                       affiliation
   <chr>                      <chr>      
 1 Lars Eivind Kreken         & co       
 2 Mikael Ernst Joergensen    & co       
 3 Thomas Hoegeboel           & co       
 4 Thomas Hoffmann            & co       
 5 Niels Thorborg             3C Groups  
 6 Soeren Melanchton Pedersen 3C Groups  
 7 Nicoline E. Hyldahl        3C Groups  
 8 Maurizio Botta             3M         
 9 Nicolas Nees Henriksson    3M         
10 Niels Roeddik              3M         
# ℹ 9,514 more rows
…
