Indsamling af netværksdata og konstruktion af netværksobjekter – Kursusmateriale til Virksomhedsstrategi i et netværksperspektiv
…
Alle ‘organisationer’ i datasættet er kodet med en række tags som kategoriserer organisationerne i forskellige emner.

den %>% select(name, affiliation, tags)

# A tibble: 56,849 × 3
   name                    affiliation                  tags                    
   <chr>                   <chr>                        <chr>                   
 1 Lars Eivind Kreken      & co                         Corporation, Media, Mar…
 2 Mikael Ernst Joergensen & co                         Corporation, Media, Mar…
 3 Thomas Hoegeboel        & co                         Corporation, Media, Mar…
 4 Thomas Hoffmann         & co                         Corporation, Media, Mar…
 5 Hans Joergen Rasmusen   15. juni fonden (Bestyrelse) Charity, Culture, Found…
 6 Niels Thomas Heering    15. juni fonden (Bestyrelse) Charity, Culture, Found…
 7 Else Mikkelsen 55281    15. juni fonden (Bestyrelse) Charity, Culture, Found…
 8 Helene K. Hjenner       15. juni fonden (Bestyrelse) Charity, Culture, Found…
 9 Jette Baagoee           15. juni fonden (Bestyrelse) Charity, Culture, Found…
10 Zeb Meier Watz          2 Timer om ugen (Bestyrelse) Education, Youth, egmon…
# ℹ 56,839 more rows
…
df_current <- df_current %>% 
  mutate(role_level_rec = case_when(
    role_level_rec == "other" & 
      (grepl("SenMan", role_type, ignore.case = T) | 
         grepl("manager", role_level, ignore.case = T)) ~ "executive",
    role_level_rec == "other" & 
      grepl("chief", role_level, ignore.case = T) ~ "executive",
    .default = role_level_rec))

df_current <- df_current %>% 
  filter(role_level_rec %in% c("member","chairman", "vice chairman","executive"))

df_current %>% ungroup() %>% count(role_level, sort = TRUE)

# A tibble: 403 × 2
   role_level                                             n
   <chr>                                              <int>
 1 Member                                             10438
 2 Highest executive                                   2530
 3 President / Chairman                                2246
 4 Representative                                      2158
 5 Unspecified executive                                991
 6 Manager                                              879
 7 Executive                                            685
 8 Vice President / Vice Chairman                       589
 9 Chief Financial Officer (CFO); Financial executive   566
10 Chief Officer; Executive                             445
# ℹ 393 more rows

Vi kan starte med lige at se på hvor mange ‘board members’ hver virksomhed har: Som I kan se er der nogle meget store ‘boards’. Det er et af problemerne med Orbis, nemlig at det er uklart hvad der er registreret per virksomhed.

df_current %>% distinct(name, affiliation) %>% count(affiliation, sort = TRUE)

# A tibble: 5,927 × 2
   affiliation                          n
   <chr>                            <int>
 1 CONSTELLATION BRANDS, INC.         834
 2 BROWN FORMAN CORP                  300
 3 PHILIP MORRIS INTERNATIONAL INC.   187
 4 MOLSON COORS BEVERAGE COMPANY      172
 5 TREASURY WINE ESTATES LIMITED      110
 6 JAPAN TOBACCO INC                   75
 7 ALTRIA GROUP, INC.                  67
 8 TURNING POINT BRANDS, INC.          66
 9 TANZANIA BREWERIES LIMITED          53
10 SECHABA BREWERY HOLDINGS LIMITED    52
# ℹ 5,917 more rows
…
